uart/sim/baud_gen_tb.vcd
$date
	Tue May 19 04:22:12 2026
$end
$version
	Icarus Verilog
$end
$timescale
	1ps
$end
$scope module baud_gen_tb $end
$var wire 1 ! baud_tick $end
$var parameter 32 " BAUD_RATE_TB $end
$var parameter 32 # CLK_FREQ_TB $end
$var parameter 32 $ EXPECTED_CLKS_PER_BIT $end
$var reg 1 % clk $end
$var reg 1 & rst $end
$var integer 32 ' clk_cycle [31:0] $end
$var integer 32 ( errors [31:0] $end
$var integer 32 ) interval [31:0] $end
$var integer 32 * last_tick_cycle [31:0] $end
$var integer 32 + measured_intervals [31:0] $end
$scope module dut $end
$var wire 1 % clk $end
$var wire 1 & rst $end
$var wire 1 ! baud_tick $end
$var parameter 32 , BAUD_RATE $end
$var parameter 32 - CLKS_PER_BIT $end
$var parameter 32 . CLK_FREQ $end
$var reg 32 / counter [31:0] $end
$upscope $end
$upscope $end
$enddefinitions $end
$comment Show the parameter values. $end
$dumpall
b1010000 .
b1000 -
b1010 ,
b1000 $
b1010000 #
b1010 "
$end
#0
$dumpvars
b0 /
b0 +
b11111111111111111111111111111111 *
b0 )
b0 (
b0 '
1&
0%
0!
$end
#5000
1%
#10000
0%
#15000
1%
#20000
0%
#25000
1%
#30000
0&
0%
#35000
b1 /
1%
#36000
b1 '
#40000
0%
#45000
b10 /
1%
#46000
b10 '
#50000
0%
#55000
b11 /
1%
#56000
b11 '
#60000
0%
#65000
b100 /
1%
#66000
b100 '
#70000
0%
#75000
b101 /
1%
#76000
b101 '
#80000
0%
#85000
b110 /
1%
#86000
b110 '
#90000
0%
#95000
1!
b111 /
1%
#96000
b111 *
b111 '
#100000
0%
#105000
0!
b0 /
1%
#106000
b1000 '
#110000
0%
#115000
b1 /
1%
#116000
b1001 '
#120000
0%
#125000
b10 /
1%
#126000
b1010 '
#130000
0%
#135000
b11 /
1%
#136000
b1011 '
#140000
0%
#145000
b100 /
1%
#146000
b1100 '
#150000
0%
#155000
b101 /
1%
#156000
b1101 '
#160000
0%
#165000
b110 /
1%
#166000
b1110 '
#170000
0%
#175000
1!
b111 /
1%
#176000
b1111 *
b1 +
b1000 )
b1111 '
#180000
0%
#185000
0!
b0 /
1%
#186000
b10000 '
#190000
0%
#195000
b1 /
1%
#196000
b10001 '
#200000
0%
#205000
b10 /
1%
#206000
b10010 '
#210000
0%
#215000
b11 /
1%
#216000
b10011 '
#220000
0%
#225000
b100 /
1%
#226000
b10100 '
#230000
0%
#235000
b101 /
1%
#236000
b10101 '
#240000
0%
#245000
b110 /
1%
#246000
b10110 '
#250000
0%
#255000
1!
b111 /
1%
#256000
b10111 *
b10 +
b10111 '
#260000
0%
#265000
0!
b0 /
1%
#266000
b11000 '
#270000
0%
#275000
b1 /
1%
#276000
b11001 '
#280000
0%
#285000
b10 /
1%
#286000
b11010 '
#290000
0%
#295000
b11 /
1%
#296000
b11011 '
#300000
0%
#305000
b100 /
1%
#306000
b11100 '
#310000
0%
#315000
b101 /
1%
#316000
b11101 '
#320000
0%
#325000
b110 /
1%
#326000
b11110 '
#330000
0%
#335000
1!
b111 /
1%
#336000
b11111 *
b11 +
b11111 '
#340000
0%
#345000
0!
b0 /
1%
#346000
b100000 '
#350000
0%
#355000
b1 /
1%
#356000
b100001 '
#360000
0%
#365000
b10 /
1%
#366000
b100010 '
#370000
0%
#375000
b11 /
1%
#376000
b100011 '
#380000
0%
#385000
b100 /
1%
#386000
b100100 '
#390000
0%
#395000
b101 /
1%
#396000
b100101 '
#400000
0%
#405000
b110 /
1%
#406000
b100110 '
#410000
0%
#415000
1!
b111 /
1%
#416000
b100111 *
b100 +
b100111 '
#420000
0%
#425000
0!
b0 /
1%
#426000
b101000 '
#430000
0%
#435000
b1 /
1%
#436000
b101001 '
#440000
0%
#445000
b10 /
1%
#446000
b101010 '
#450000
0%
#455000
b11 /
1%
#456000
b101011 '
#460000
0%
#465000
b100 /
1%
#466000
b101100 '
#470000
0%
#475000
b101 /
1%
#476000
b101101 '
#480000
0%
#485000
b110 /
1%
#486000
b101110 '
#490000
0%
#495000
1!
b111 /
1%
#496000
b101111 *
b101 +
b101111 '
