uart/sim/uart_tx_tb.vcd
$date
	Tue May 19 04:23:15 2026
$end
$version
	Icarus Verilog
$end
$timescale
	1ps
$end
$scope module uart_tx_tb $end
$var wire 1 ! tx_done $end
$var wire 1 " tx_busy $end
$var wire 1 # tx $end
$var reg 1 $ baud_tick $end
$var reg 1 % clk $end
$var reg 1 & rst $end
$var reg 8 ' tx_data [7:0] $end
$var reg 1 ( tx_start $end
$var integer 32 ) errors [31:0] $end
$var integer 32 * i [31:0] $end
$scope module dut $end
$var wire 1 $ baud_tick $end
$var wire 1 % clk $end
$var wire 1 & rst $end
$var wire 8 + tx_data [7:0] $end
$var wire 1 ( tx_start $end
$var parameter 3 , DATA_BITS $end
$var parameter 3 - DONE $end
$var parameter 3 . IDLE $end
$var parameter 3 / START_BIT $end
$var parameter 3 0 STOP_BIT $end
$var reg 3 1 bit_index [2:0] $end
$var reg 8 2 data_reg [7:0] $end
$var reg 3 3 state [2:0] $end
$var reg 1 # tx $end
$var reg 1 " tx_busy $end
$var reg 1 ! tx_done $end
$upscope $end
$scope task pulse_baud_tick $end
$upscope $end
$scope task send_and_check $end
$var reg 8 4 expected_data [7:0] $end
$upscope $end
$upscope $end
$enddefinitions $end
$comment Show the parameter values. $end
$dumpall
b11 0
b1 /
b0 .
b100 -
b10 ,
$end
#0
$dumpvars
bx 4
b0 3
b0 2
b0 1
b0 +
bx *
b0 )
0(
b0 '
1&
0%
0$
1#
0"
0!
$end
#5000
1%
#10000
0%
#15000
1%
#20000
0%
#25000
1%
#30000
0&
0%
#35000
1%
#40000
0%
#45000
b10100101 '
b10100101 +
b10100101 4
1%
#50000
1(
0%
#55000
b1 3
1"
0#
b10100101 2
1%
#60000
0(
0%
#61000
b0 *
#65000
1%
#70000
1$
0%
#75000
b10 3
1#
1%
#80000
0$
0%
#81000
b1 *
#85000
1%
#90000
1$
0%
#95000
0#
b1 1
1%
#100000
0$
0%
#101000
b10 *
#105000
1%
#110000
1$
0%
#115000
1#
b10 1
1%
#120000
0$
0%
#121000
b11 *
#125000
1%
#130000
1$
0%
#135000
0#
b11 1
1%
#140000
0$
0%
#141000
b100 *
#145000
1%
#150000
1$
0%
#155000
b100 1
1%
#160000
0$
0%
#161000
b101 *
#165000
1%
#170000
1$
0%
#175000
1#
b101 1
1%
#180000
0$
0%
#181000
b110 *
#185000
1%
#190000
1$
0%
#195000
0#
b110 1
1%
#200000
0$
0%
#201000
b111 *
#205000
1%
#210000
1$
0%
#215000
1#
b111 1
1%
#220000
0$
0%
#221000
b1000 *
#225000
1%
#230000
1$
0%
#235000
b11 3
b0 1
1%
#240000
0$
0%
#245000
1%
#250000
1$
0%
#255000
b100 3
1%
#260000
0$
0%
#265000
b0 3
1!
0"
1%
#270000
0%
#275000
0!
1%
#280000
0%
#285000
1%
#290000
0%
#295000
1%
#300000
0%
#305000
b111100 '
b111100 +
b111100 4
1%
#310000
1(
0%
#315000
b1 3
1"
0#
b111100 2
1%
#320000
0(
0%
#321000
b0 *
#325000
1%
#330000
1$
0%
#335000
b10 3
1%
#340000
0$
0%
#341000
b1 *
#345000
1%
#350000
1$
0%
#355000
b1 1
1%
#360000
0$
0%
#361000
b10 *
#365000
1%
#370000
1$
0%
#375000
1#
b10 1
1%
#380000
0$
0%
#381000
b11 *
#385000
1%
#390000
1$
0%
#395000
b11 1
1%
#400000
0$
0%
#401000
b100 *
#405000
1%
#410000
1$
0%
#415000
b100 1
1%
#420000
0$
0%
#421000
b101 *
#425000
1%
#430000
1$
0%
#435000
b101 1
1%
#440000
0$
0%
#441000
b110 *
#445000
1%
#450000
1$
0%
#455000
0#
b110 1
1%
#460000
0$
0%
#461000
b111 *
#465000
1%
#470000
1$
0%
#475000
b111 1
1%
#480000
0$
0%
#481000
b1000 *
#485000
1%
#490000
1$
0%
#495000
b11 3
b0 1
1#
1%
#500000
0$
0%
#505000
1%
#510000
1$
0%
#515000
b100 3
1%
#520000
0$
0%
#525000
b0 3
1!
0"
1%
#530000
0%
#535000
0!
1%
