uart/sim/uart_tb.vcd
$date
	Tue May 19 04:23:53 2026
$end
$version
	Icarus Verilog
$end
$timescale
	1ps
$end
$scope module uart_tb $end
$var wire 1 ! tx_done $end
$var wire 1 " tx_busy $end
$var wire 1 # tx $end
$var wire 1 $ rx_done $end
$var wire 8 % rx_data [7:0] $end
$var parameter 32 & BAUD_RATE_TB $end
$var parameter 32 ' CLKS_PER_BIT $end
$var parameter 32 ( CLK_FREQ_TB $end
$var reg 1 ) clk $end
$var reg 1 * rst $end
$var reg 8 + tx_data [7:0] $end
$var reg 1 , tx_start $end
$var integer 32 - errors [31:0] $end
$scope module dut $end
$var wire 1 ) clk $end
$var wire 1 * rst $end
$var wire 8 . tx_data [7:0] $end
$var wire 1 , tx_start $end
$var wire 1 ! tx_done $end
$var wire 1 " tx_busy $end
$var wire 1 # tx $end
$var wire 1 $ rx_done $end
$var wire 8 / rx_data [7:0] $end
$var wire 1 # rx $end
$var wire 1 0 baud_tick $end
$var parameter 32 1 BAUD_RATE $end
$var parameter 32 2 CLK_FREQ $end
$scope module baud_inst $end
$var wire 1 ) clk $end
$var wire 1 * rst $end
$var wire 1 0 baud_tick $end
$var parameter 32 3 BAUD_RATE $end
$var parameter 32 4 CLKS_PER_BIT $end
$var parameter 32 5 CLK_FREQ $end
$var reg 32 6 counter [31:0] $end
$upscope $end
$scope module rx_inst $end
$var wire 1 0 baud_tick $end
$var wire 1 ) clk $end
$var wire 1 * rst $end
$var wire 1 # rx $end
$var parameter 3 7 DATA_BITS $end
$var parameter 3 8 DONE $end
$var parameter 3 9 IDLE $end
$var parameter 3 : START_BIT $end
$var parameter 3 ; STOP_BIT $end
$var reg 3 < bit_index [2:0] $end
$var reg 8 = data_reg [7:0] $end
$var reg 8 > rx_data [7:0] $end
$var reg 1 $ rx_done $end
$var reg 3 ? state [2:0] $end
$upscope $end
$scope module tx_inst $end
$var wire 1 0 baud_tick $end
$var wire 1 ) clk $end
$var wire 1 * rst $end
$var wire 8 @ tx_data [7:0] $end
$var wire 1 , tx_start $end
$var parameter 3 A DATA_BITS $end
$var parameter 3 B DONE $end
$var parameter 3 C IDLE $end
$var parameter 3 D START_BIT $end
$var parameter 3 E STOP_BIT $end
$var reg 3 F bit_index [2:0] $end
$var reg 8 G data_reg [7:0] $end
$var reg 3 H state [2:0] $end
$var reg 1 # tx $end
$var reg 1 " tx_busy $end
$var reg 1 ! tx_done $end
$upscope $end
$upscope $end
$scope task send_and_check $end
$var reg 8 I data [7:0] $end
$var integer 32 J timeout [31:0] $end
$upscope $end
$upscope $end
$enddefinitions $end
$comment Show the parameter values. $end
$dumpall
b11 E
b1 D
b0 C
b100 B
b10 A
b11 ;
b1 :
b0 9
b100 8
b10 7
b101000000 5
b100000 4
b1010 3
b101000000 2
b1010 1
b101000000 (
b100000 '
b1010 &
$end
#0
$dumpvars
bx J
bx I
b0 H
b0 G
b0 F
b0 @
b0 ?
b0 >
b0 =
b0 <
b0 6
00
b0 /
b0 .
b0 -
0,
b0 +
1*
0)
b0 %
0$
1#
0"
0!
$end
#5000
1)
#10000
0)
#15000
1)
#20000
0)
#25000
1)
#30000
0)
#35000
1)
#40000
0)
#45000
1)
#50000
0*
0)
#55000
b1 6
1)
#60000
0)
#65000
b10 6
1)
#70000
0)
#75000
b11 6
1)
#80000
0)
#85000
b100 6
1)
#90000
0)
#95000
b101 6
b1010101 +
b1010101 .
b1010101 @
b1010101 I
1)
#100000
0)
#105000
b110 6
1)
#110000
0)
#115000
b111 6
1)
#120000
0)
#125000
b1000 6
1)
#130000
0)
#135000
b1001 6
1)
#140000
0)
#145000
b1010 6
1)
#150000
0)
#155000
b1011 6
1)
#160000
0)
#165000
b1100 6
1)
#170000
0)
#175000
b1101 6
1)
#180000
0)
#185000
b1110 6
1)
#190000
0)
#195000
b1111 6
1)
#200000
0)
#205000
b10000 6
1)
#210000
0)
#215000
b10001 6
1)
#220000
0)
#225000
b10010 6
1)
#230000
0)
#235000
b10011 6
1)
#240000
0)
#245000
b10100 6
1)
#250000
0)
#255000
b10101 6
1)
#260000
0)
#265000
b10110 6
1)
#270000
0)
#275000
b10111 6
1)
#280000
0)
#285000
b11000 6
1)
#290000
0)
#295000
b11001 6
1)
#300000
0)
#305000
b11010 6
1)
#310000
0)
#315000
b11011 6
1)
#320000
0)
#325000
b11100 6
1)
#330000
0)
#335000
b11101 6
1)
#340000
0)
#345000
b11110 6
1)
#350000
0)
#355000
10
b11111 6
1)
#360000
1,
0)
#365000
b1 H
1"
0#
b1010101 G
00
b0 6
1)
#370000
b0 J
0,
0)
#375000
b1 6
b1 ?
1)
#376000
b1 J
#380000
0)
#385000
b10 6
1)
#386000
b10 J
#390000
0)
#395000
b11 6
1)
#396000
b11 J
#400000
0)
#405000
b100 6
1)
#406000
b100 J
#410000
0)
#415000
b101 6
1)
#416000
b101 J
#420000
0)
#425000
b110 6
1)
#426000
b110 J
#430000
0)
#435000
b111 6
1)
#436000
b111 J
#440000
0)
#445000
b1000 6
1)
#446000
b1000 J
#450000
0)
#455000
b1001 6
1)
#456000
b1001 J
#460000
0)
#465000
b1010 6
1)
#466000
b1010 J
#470000
0)
#475000
b1011 6
1)
#476000
b1011 J
#480000
0)
#485000
b1100 6
1)
#486000
b1100 J
#490000
0)
#495000
b1101 6
1)
#496000
b1101 J
#500000
0)
#505000
b1110 6
1)
#506000
b1110 J
#510000
0)
#515000
b1111 6
1)
#516000
b1111 J
#520000
0)
#525000
b10000 6
1)
#526000
b10000 J
#530000
0)
#535000
b10001 6
1)
#536000
b10001 J
#540000
0)
#545000
b10010 6
1)
#546000
b10010 J
#550000
0)
#555000
b10011 6
1)
#556000
b10011 J
#560000
0)
#565000
b10100 6
1)
#566000
b10100 J
#570000
0)
#575000
b10101 6
1)
#576000
b10101 J
#580000
0)
#585000
b10110 6
1)
#586000
b10110 J
#590000
0)
#595000
b10111 6
1)
#596000
b10111 J
#600000
0)
#605000
b11000 6
1)
#606000
b11000 J
#610000
0)
#615000
b11001 6
1)
#616000
b11001 J
#620000
0)
#625000
b11010 6
1)
#626000
b11010 J
#630000
0)
#635000
b11011 6
1)
#636000
b11011 J
#640000
0)
#645000
b11100 6
1)
#646000
b11100 J
#650000
0)
#655000
b11101 6
1)
#656000
b11101 J
#660000
0)
#665000
b11110 6
1)
#666000
b11110 J
#670000
0)
#675000
10
b11111 6
1)
#676000
b11111 J
#680000
0)
#685000
b10 ?
b10 H
1#
00
b0 6
1)
#686000
b100000 J
#690000
0)
#695000
b1 6
1)
#696000
b100001 J
#700000
0)
#705000
b10 6
1)
#706000
b100010 J
#710000
0)
#715000
b11 6
1)
#716000
b100011 J
#720000
0)
#725000
b100 6
1)
#726000
b100100 J
#730000
0)
#735000
b101 6
1)
#736000
b100101 J
#740000
0)
#745000
b110 6
1)
#746000
b100110 J
#750000
0)
#755000
b111 6
1)
#756000
b100111 J
#760000
0)
#765000
b1000 6
1)
#766000
b101000 J
#770000
0)
#775000
b1001 6
1)
#776000
b101001 J
#780000
0)
#785000
b1010 6
1)
#786000
b101010 J
#790000
0)
#795000
b1011 6
1)
#796000
b101011 J
#800000
0)
#805000
b1100 6
1)
#806000
b101100 J
#810000
0)
#815000
b1101 6
1)
#816000
b101101 J
#820000
0)
#825000
b1110 6
1)
#826000
b101110 J
#830000
0)
#835000
b1111 6
1)
#836000
b101111 J
#840000
0)
#845000
b10000 6
1)
#846000
b110000 J
#850000
0)
#855000
b10001 6
1)
#856000
b110001 J
#860000
0)
#865000
b10010 6
1)
#866000
b110010 J
#870000
0)
#875000
b10011 6
1)
#876000
b110011 J
#880000
0)
#885000
b10100 6
1)
#886000
b110100 J
#890000
0)
#895000
b10101 6
1)
#896000
b110101 J
#900000
0)
#905000
b10110 6
1)
#906000
b110110 J
#910000
0)
#915000
b10111 6
1)
#916000
b110111 J
#920000
0)
#925000
b11000 6
1)
#926000
b111000 J
#930000
0)
#935000
b11001 6
1)
#936000
b111001 J
#940000
0)
#945000
b11010 6
1)
#946000
b111010 J
#950000
0)
#955000
b11011 6
1)
#956000
b111011 J
#960000
0)
#965000
b11100 6
1)
#966000
b111100 J
#970000
0)
#975000
b11101 6
1)
#976000
b111101 J
#980000
0)
#985000
b11110 6
1)
#986000
b111110 J
#990000
0)
#995000
10
b11111 6
1)
#996000
b111111 J
#1000000
0)
#1005000
b1 <
b1 =
0#
b1 F
00
b0 6
1)
#1006000
b1000000 J
#1010000
0)
#1015000
b1 6
1)
#1016000
b1000001 J
#1020000
0)
#1025000
b10 6
1)
#1026000
b1000010 J
#1030000
0)
#1035000
b11 6
1)
#1036000
b1000011 J
#1040000
0)
#1045000
b100 6
1)
#1046000
b1000100 J
#1050000
0)
#1055000
b101 6
1)
#1056000
b1000101 J
#1060000
0)
#1065000
b110 6
1)
#1066000
b1000110 J
#1070000
0)
#1075000
b111 6
1)
#1076000
b1000111 J
#1080000
0)
#1085000
b1000 6
1)
#1086000
b1001000 J
#1090000
0)
#1095000
b1001 6
1)
#1096000
b1001001 J
#1100000
0)
#1105000
b1010 6
1)
#1106000
b1001010 J
#1110000
0)
#1115000
b1011 6
1)
#1116000
b1001011 J
#1120000
0)
#1125000
b1100 6
1)
#1126000
b1001100 J
#1130000
0)
#1135000
b1101 6
1)
#1136000
b1001101 J
#1140000
0)
#1145000
b1110 6
1)
#1146000
b1001110 J
#1150000
0)
#1155000
b1111 6
1)
#1156000
b1001111 J
#1160000
0)
#1165000
b10000 6
1)
#1166000
b1010000 J
#1170000
0)
#1175000
b10001 6
1)
#1176000
b1010001 J
#1180000
0)
#1185000
b10010 6
1)
#1186000
b1010010 J
#1190000
0)
#1195000
b10011 6
1)
#1196000
b1010011 J
#1200000
0)
#1205000
b10100 6
1)
#1206000
b1010100 J
#1210000
0)
#1215000
b10101 6
1)
#1216000
b1010101 J
#1220000
0)
#1225000
b10110 6
1)
#1226000
b1010110 J
#1230000
0)
#1235000
b10111 6
1)
#1236000
b1010111 J
#1240000
0)
#1245000
b11000 6
1)
#1246000
b1011000 J
#1250000
0)
#1255000
b11001 6
1)
#1256000
b1011001 J
#1260000
0)
#1265000
b11010 6
1)
#1266000
b1011010 J
#1270000
0)
#1275000
b11011 6
1)
#1276000
b1011011 J
#1280000
0)
#1285000
b11100 6
1)
#1286000
b1011100 J
#1290000
0)
#1295000
b11101 6
1)
#1296000
b1011101 J
#1300000
0)
#1305000
b11110 6
1)
#1306000
b1011110 J
#1310000
0)
#1315000
10
b11111 6
1)
#1316000
b1011111 J
#1320000
0)
#1325000
b10 <
1#
b10 F
00
b0 6
1)
#1326000
b1100000 J
#1330000
0)
#1335000
b1 6
1)
#1336000
b1100001 J
#1340000
0)
#1345000
b10 6
1)
#1346000
b1100010 J
#1350000
0)
#1355000
b11 6
1)
#1356000
b1100011 J
#1360000
0)
#1365000
b100 6
1)
#1366000
b1100100 J
#1370000
0)
#1375000
b101 6
1)
#1376000
b1100101 J
#1380000
0)
#1385000
b110 6
1)
#1386000
b1100110 J
#1390000
0)
#1395000
b111 6
1)
#1396000
b1100111 J
#1400000
0)
#1405000
b1000 6
1)
#1406000
b1101000 J
#1410000
0)
#1415000
b1001 6
1)
#1416000
b1101001 J
#1420000
0)
#1425000
b1010 6
1)
#1426000
b1101010 J
#1430000
0)
#1435000
b1011 6
1)
#1436000
b1101011 J
#1440000
0)
#1445000
b1100 6
1)
#1446000
b1101100 J
#1450000
0)
#1455000
b1101 6
1)
#1456000
b1101101 J
#1460000
0)
#1465000
b1110 6
1)
#1466000
b1101110 J
#1470000
0)
#1475000
b1111 6
1)
#1476000
b1101111 J
#1480000
0)
#1485000
b10000 6
1)
#1486000
b1110000 J
#1490000
0)
#1495000
b10001 6
1)
#1496000
b1110001 J
#1500000
0)
#1505000
b10010 6
1)
#1506000
b1110010 J
#1510000
0)
#1515000
b10011 6
1)
#1516000
b1110011 J
#1520000
0)
#1525000
b10100 6
1)
#1526000
b1110100 J
#1530000
0)
#1535000
b10101 6
1)
#1536000
b1110101 J
#1540000
0)
#1545000
b10110 6
1)
#1546000
b1110110 J
#1550000
0)
#1555000
b10111 6
1)
#1556000
b1110111 J
#1560000
0)
#1565000
b11000 6
1)
#1566000
b1111000 J
#1570000
0)
#1575000
b11001 6
1)
#1576000
b1111001 J
#1580000
0)
#1585000
b11010 6
1)
#1586000
b1111010 J
#1590000
0)
#1595000
b11011 6
1)
#1596000
b1111011 J
#1600000
0)
#1605000
b11100 6
1)
#1606000
b1111100 J
#1610000
0)
#1615000
b11101 6
1)
#1616000
b1111101 J
#1620000
0)
#1625000
b11110 6
1)
#1626000
b1111110 J
#1630000
0)
#1635000
10
b11111 6
1)
#1636000
b1111111 J
#1640000
0)
#1645000
b11 <
b101 =
0#
b11 F
00
b0 6
1)
#1646000
b10000000 J
#1650000
0)
#1655000
b1 6
1)
#1656000
b10000001 J
#1660000
0)
#1665000
b10 6
1)
#1666000
b10000010 J
#1670000
0)
#1675000
b11 6
1)
#1676000
b10000011 J
#1680000
0)
#1685000
b100 6
1)
#1686000
b10000100 J
#1690000
0)
#1695000
b101 6
1)
#1696000
b10000101 J
#1700000
0)
#1705000
b110 6
1)
#1706000
b10000110 J
#1710000
0)
#1715000
b111 6
1)
#1716000
b10000111 J
#1720000
0)
#1725000
b1000 6
1)
#1726000
b10001000 J
#1730000
0)
#1735000
b1001 6
1)
#1736000
b10001001 J
#1740000
0)
#1745000
b1010 6
1)
#1746000
b10001010 J
#1750000
0)
#1755000
b1011 6
1)
#1756000
b10001011 J
#1760000
0)
#1765000
b1100 6
1)
#1766000
b10001100 J
#1770000
0)
#1775000
b1101 6
1)
#1776000
b10001101 J
#1780000
0)
#1785000
b1110 6
1)
#1786000
b10001110 J
#1790000
0)
#1795000
b1111 6
1)
#1796000
b10001111 J
#1800000
0)
#1805000
b10000 6
1)
#1806000
b10010000 J
#1810000
0)
#1815000
b10001 6
1)
#1816000
b10010001 J
#1820000
0)
#1825000
b10010 6
1)
#1826000
b10010010 J
#1830000
0)
#1835000
b10011 6
1)
#1836000
b10010011 J
#1840000
0)
#1845000
b10100 6
1)
#1846000
b10010100 J
#1850000
0)
#1855000
b10101 6
1)
#1856000
b10010101 J
#1860000
0)
#1865000
b10110 6
1)
#1866000
b10010110 J
#1870000
0)
#1875000
b10111 6
1)
#1876000
b10010111 J
#1880000
0)
#1885000
b11000 6
1)
#1886000
b10011000 J
#1890000
0)
#1895000
b11001 6
1)
#1896000
b10011001 J
#1900000
0)
#1905000
b11010 6
1)
#1906000
b10011010 J
#1910000
0)
#1915000
b11011 6
1)
#1916000
b10011011 J
#1920000
0)
#1925000
b11100 6
1)
#1926000
b10011100 J
#1930000
0)
#1935000
b11101 6
1)
#1936000
b10011101 J
#1940000
0)
#1945000
b11110 6
1)
#1946000
b10011110 J
#1950000
0)
#1955000
10
b11111 6
1)
#1956000
b10011111 J
#1960000
0)
#1965000
b100 <
1#
b100 F
00
b0 6
1)
#1966000
b10100000 J
#1970000
0)
#1975000
b1 6
1)
#1976000
b10100001 J
#1980000
0)
#1985000
b10 6
1)
#1986000
b10100010 J
#1990000
0)
#1995000
b11 6
1)
#1996000
b10100011 J
#2000000
0)
#2005000
b100 6
1)
#2006000
b10100100 J
#2010000
0)
#2015000
b101 6
1)
#2016000
b10100101 J
#2020000
0)
#2025000
b110 6
1)
#2026000
b10100110 J
#2030000
0)
#2035000
b111 6
1)
#2036000
b10100111 J
#2040000
0)
#2045000
b1000 6
1)
#2046000
b10101000 J
#2050000
0)
#2055000
b1001 6
1)
#2056000
b10101001 J
#2060000
0)
#2065000
b1010 6
1)
#2066000
b10101010 J
#2070000
0)
#2075000
b1011 6
1)
#2076000
b10101011 J
#2080000
0)
#2085000
b1100 6
1)
#2086000
b10101100 J
#2090000
0)
#2095000
b1101 6
1)
#2096000
b10101101 J
#2100000
0)
#2105000
b1110 6
1)
#2106000
b10101110 J
#2110000
0)
#2115000
b1111 6
1)
#2116000
b10101111 J
#2120000
0)
#2125000
b10000 6
1)
#2126000
b10110000 J
#2130000
0)
#2135000
b10001 6
1)
#2136000
b10110001 J
#2140000
0)
#2145000
b10010 6
1)
#2146000
b10110010 J
#2150000
0)
#2155000
b10011 6
1)
#2156000
b10110011 J
#2160000
0)
#2165000
b10100 6
1)
#2166000
b10110100 J
#2170000
0)
#2175000
b10101 6
1)
#2176000
b10110101 J
#2180000
0)
#2185000
b10110 6
1)
#2186000
b10110110 J
#2190000
0)
#2195000
b10111 6
1)
#2196000
b10110111 J
#2200000
0)
#2205000
b11000 6
1)
#2206000
b10111000 J
#2210000
0)
#2215000
b11001 6
1)
#2216000
b10111001 J
#2220000
0)
#2225000
b11010 6
1)
#2226000
b10111010 J
#2230000
0)
#2235000
b11011 6
1)
#2236000
b10111011 J
#2240000
0)
#2245000
b11100 6
1)
#2246000
b10111100 J
#2250000
0)
#2255000
b11101 6
1)
#2256000
b10111101 J
#2260000
0)
#2265000
b11110 6
1)
#2266000
b10111110 J
#2270000
0)
#2275000
10
b11111 6
1)
#2276000
b10111111 J
#2280000
0)
#2285000
b101 <
b10101 =
0#
b101 F
00
b0 6
1)
#2286000
b11000000 J
#2290000
0)
#2295000
b1 6
1)
#2296000
b11000001 J
#2300000
0)
#2305000
b10 6
1)
#2306000
b11000010 J
#2310000
0)
#2315000
b11 6
1)
#2316000
b11000011 J
#2320000
0)
#2325000
b100 6
1)
#2326000
b11000100 J
#2330000
0)
#2335000
b101 6
1)
#2336000
b11000101 J
#2340000
0)
#2345000
b110 6
1)
#2346000
b11000110 J
#2350000
0)
#2355000
b111 6
1)
#2356000
b11000111 J
#2360000
0)
#2365000
b1000 6
1)
#2366000
b11001000 J
#2370000
0)
#2375000
b1001 6
1)
#2376000
b11001001 J
#2380000
0)
#2385000
b1010 6
1)
#2386000
b11001010 J
#2390000
0)
#2395000
b1011 6
1)
#2396000
b11001011 J
#2400000
0)
#2405000
b1100 6
1)
#2406000
b11001100 J
#2410000
0)
#2415000
b1101 6
1)
#2416000
b11001101 J
#2420000
0)
#2425000
b1110 6
1)
#2426000
b11001110 J
#2430000
0)
#2435000
b1111 6
1)
#2436000
b11001111 J
#2440000
0)
#2445000
b10000 6
1)
#2446000
b11010000 J
#2450000
0)
#2455000
b10001 6
1)
#2456000
b11010001 J
#2460000
0)
#2465000
b10010 6
1)
#2466000
b11010010 J
#2470000
0)
#2475000
b10011 6
1)
#2476000
b11010011 J
#2480000
0)
#2485000
b10100 6
1)
#2486000
b11010100 J
#2490000
0)
#2495000
b10101 6
1)
#2496000
b11010101 J
#2500000
0)
#2505000
b10110 6
1)
#2506000
b11010110 J
#2510000
0)
#2515000
b10111 6
1)
#2516000
b11010111 J
#2520000
0)
#2525000
b11000 6
1)
#2526000
b11011000 J
#2530000
0)
#2535000
b11001 6
1)
#2536000
b11011001 J
#2540000
0)
#2545000
b11010 6
1)
#2546000
b11011010 J
#2550000
0)
#2555000
b11011 6
1)
#2556000
b11011011 J
#2560000
0)
#2565000
b11100 6
1)
#2566000
b11011100 J
#2570000
0)
#2575000
b11101 6
1)
#2576000
b11011101 J
#2580000
0)
#2585000
b11110 6
1)
#2586000
b11011110 J
#2590000
0)
#2595000
10
b11111 6
1)
#2596000
b11011111 J
#2600000
0)
#2605000
b110 <
1#
b110 F
00
b0 6
1)
#2606000
b11100000 J
#2610000
0)
#2615000
b1 6
1)
#2616000
b11100001 J
#2620000
0)
#2625000
b10 6
1)
#2626000
b11100010 J
#2630000
0)
#2635000
b11 6
1)
#2636000
b11100011 J
#2640000
0)
#2645000
b100 6
1)
#2646000
b11100100 J
#2650000
0)
#2655000
b101 6
1)
#2656000
b11100101 J
#2660000
0)
#2665000
b110 6
1)
#2666000
b11100110 J
#2670000
0)
#2675000
b111 6
1)
#2676000
b11100111 J
#2680000
0)
#2685000
b1000 6
1)
#2686000
b11101000 J
#2690000
0)
#2695000
b1001 6
1)
#2696000
b11101001 J
#2700000
0)
#2705000
b1010 6
1)
#2706000
b11101010 J
#2710000
0)
#2715000
b1011 6
1)
#2716000
b11101011 J
#2720000
0)
#2725000
b1100 6
1)
#2726000
b11101100 J
#2730000
0)
#2735000
b1101 6
1)
#2736000
b11101101 J
#2740000
0)
#2745000
b1110 6
1)
#2746000
b11101110 J
#2750000
0)
#2755000
b1111 6
1)
#2756000
b11101111 J
#2760000
0)
#2765000
b10000 6
1)
#2766000
b11110000 J
#2770000
0)
#2775000
b10001 6
1)
#2776000
b11110001 J
#2780000
0)
#2785000
b10010 6
1)
#2786000
b11110010 J
#2790000
0)
#2795000
b10011 6
1)
#2796000
b11110011 J
#2800000
0)
#2805000
b10100 6
1)
#2806000
b11110100 J
#2810000
0)
#2815000
b10101 6
1)
#2816000
b11110101 J
#2820000
0)
#2825000
b10110 6
1)
#2826000
b11110110 J
#2830000
0)
#2835000
b10111 6
1)
#2836000
b11110111 J
#2840000
0)
#2845000
b11000 6
1)
#2846000
b11111000 J
#2850000
0)
#2855000
b11001 6
1)
#2856000
b11111001 J
#2860000
0)
#2865000
b11010 6
1)
#2866000
b11111010 J
#2870000
0)
#2875000
b11011 6
1)
#2876000
b11111011 J
#2880000
0)
#2885000
b11100 6
1)
#2886000
b11111100 J
#2890000
0)
#2895000
b11101 6
1)
#2896000
b11111101 J
#2900000
0)
#2905000
b11110 6
1)
#2906000
b11111110 J
#2910000
0)
#2915000
10
b11111 6
1)
#2916000
b11111111 J
#2920000
0)
#2925000
b111 <
b1010101 =
0#
b111 F
00
b0 6
1)
#2926000
b100000000 J
#2930000
0)
#2935000
b1 6
1)
#2936000
b100000001 J
#2940000
0)
#2945000
b10 6
1)
#2946000
b100000010 J
#2950000
0)
#2955000
b11 6
1)
#2956000
b100000011 J
#2960000
0)
#2965000
b100 6
1)
#2966000
b100000100 J
#2970000
0)
#2975000
b101 6
1)
#2976000
b100000101 J
#2980000
0)
#2985000
b110 6
1)
#2986000
b100000110 J
#2990000
0)
#2995000
b111 6
1)
#2996000
b100000111 J
#3000000
0)
#3005000
b1000 6
1)
#3006000
b100001000 J
#3010000
0)
#3015000
b1001 6
1)
#3016000
b100001001 J
#3020000
0)
#3025000
b1010 6
1)
#3026000
b100001010 J
#3030000
0)
#3035000
b1011 6
1)
#3036000
b100001011 J
#3040000
0)
#3045000
b1100 6
1)
#3046000
b100001100 J
#3050000
0)
#3055000
b1101 6
1)
#3056000
b100001101 J
#3060000
0)
#3065000
b1110 6
1)
#3066000
b100001110 J
#3070000
0)
#3075000
b1111 6
1)
#3076000
b100001111 J
#3080000
0)
#3085000
b10000 6
1)
#3086000
b100010000 J
#3090000
0)
#3095000
b10001 6
1)
#3096000
b100010001 J
#3100000
0)
#3105000
b10010 6
1)
#3106000
b100010010 J
#3110000
0)
#3115000
b10011 6
1)
#3116000
b100010011 J
#3120000
0)
#3125000
b10100 6
1)
#3126000
b100010100 J
#3130000
0)
#3135000
b10101 6
1)
#3136000
b100010101 J
#3140000
0)
#3145000
b10110 6
1)
#3146000
b100010110 J
#3150000
0)
#3155000
b10111 6
1)
#3156000
b100010111 J
#3160000
0)
#3165000
b11000 6
1)
#3166000
b100011000 J
#3170000
0)
#3175000
b11001 6
1)
#3176000
b100011001 J
#3180000
0)
#3185000
b11010 6
1)
#3186000
b100011010 J
#3190000
0)
#3195000
b11011 6
1)
#3196000
b100011011 J
#3200000
0)
#3205000
b11100 6
1)
#3206000
b100011100 J
#3210000
0)
#3215000
b11101 6
1)
#3216000
b100011101 J
#3220000
0)
#3225000
b11110 6
1)
#3226000
b100011110 J
#3230000
0)
#3235000
10
b11111 6
1)
#3236000
b100011111 J
#3240000
0)
#3245000
b11 ?
b0 <
b11 H
b0 F
1#
00
b0 6
1)
#3246000
b100100000 J
#3250000
0)
#3255000
b1 6
1)
#3256000
b100100001 J
#3260000
0)
#3265000
b10 6
1)
#3266000
b100100010 J
#3270000
0)
#3275000
b11 6
1)
#3276000
b100100011 J
#3280000
0)
#3285000
b100 6
1)
#3286000
b100100100 J
#3290000
0)
#3295000
b101 6
1)
#3296000
b100100101 J
#3300000
0)
#3305000
b110 6
1)
#3306000
b100100110 J
#3310000
0)
#3315000
b111 6
1)
#3316000
b100100111 J
#3320000
0)
#3325000
b1000 6
1)
#3326000
b100101000 J
#3330000
0)
#3335000
b1001 6
1)
#3336000
b100101001 J
#3340000
0)
#3345000
b1010 6
1)
#3346000
b100101010 J
#3350000
0)
#3355000
b1011 6
1)
#3356000
b100101011 J
#3360000
0)
#3365000
b1100 6
1)
#3366000
b100101100 J
#3370000
0)
#3375000
b1101 6
1)
#3376000
b100101101 J
#3380000
0)
#3385000
b1110 6
1)
#3386000
b100101110 J
#3390000
0)
#3395000
b1111 6
1)
#3396000
b100101111 J
#3400000
0)
#3405000
b10000 6
1)
#3406000
b100110000 J
#3410000
0)
#3415000
b10001 6
1)
#3416000
b100110001 J
#3420000
0)
#3425000
b10010 6
1)
#3426000
b100110010 J
#3430000
0)
#3435000
b10011 6
1)
#3436000
b100110011 J
#3440000
0)
#3445000
b10100 6
1)
#3446000
b100110100 J
#3450000
0)
#3455000
b10101 6
1)
#3456000
b100110101 J
#3460000
0)
#3465000
b10110 6
1)
#3466000
b100110110 J
#3470000
0)
#3475000
b10111 6
1)
#3476000
b100110111 J
#3480000
0)
#3485000
b11000 6
1)
#3486000
b100111000 J
#3490000
0)
#3495000
b11001 6
1)
#3496000
b100111001 J
#3500000
0)
#3505000
b11010 6
1)
#3506000
b100111010 J
#3510000
0)
#3515000
b11011 6
1)
#3516000
b100111011 J
#3520000
0)
#3525000
b11100 6
1)
#3526000
b100111100 J
#3530000
0)
#3535000
b11101 6
1)
#3536000
b100111101 J
#3540000
0)
#3545000
b11110 6
1)
#3546000
b100111110 J
#3550000
0)
#3555000
10
b11111 6
1)
#3556000
b100111111 J
#3560000
0)
#3565000
b100 ?
b1010101 %
b1010101 /
b1010101 >
b100 H
00
b0 6
1)
#3566000
b101000000 J
#3570000
0)
#3575000
b1 6
b0 H
1!
0"
b0 ?
1$
1)
#3576000
b101000001 J
#3580000
0)
#3585000
0$
0!
b10 6
1)
#3590000
0)
#3595000
b11 6
1)
#3600000
0)
#3605000
b100 6
1)
#3610000
0)
#3615000
b101 6
1)
#3620000
0)
#3625000
b110 6
b10100101 +
b10100101 .
b10100101 @
b10100101 I
1)
#3630000
0)
#3635000
b111 6
1)
#3640000
0)
#3645000
b1000 6
1)
#3650000
0)
#3655000
b1001 6
1)
#3660000
0)
#3665000
b1010 6
1)
#3670000
0)
#3675000
b1011 6
1)
#3680000
0)
#3685000
b1100 6
1)
#3690000
0)
#3695000
b1101 6
1)
#3700000
0)
#3705000
b1110 6
1)
#3710000
0)
#3715000
b1111 6
1)
#3720000
0)
#3725000
b10000 6
1)
#3730000
0)
#3735000
b10001 6
1)
#3740000
0)
#3745000
b10010 6
1)
#3750000
0)
#3755000
b10011 6
1)
#3760000
0)
#3765000
b10100 6
1)
#3770000
0)
#3775000
b10101 6
1)
#3780000
0)
#3785000
b10110 6
1)
#3790000
0)
#3795000
b10111 6
1)
#3800000
0)
#3805000
b11000 6
1)
#3810000
0)
#3815000
b11001 6
1)
#3820000
0)
#3825000
b11010 6
1)
#3830000
0)
#3835000
b11011 6
1)
#3840000
0)
#3845000
b11100 6
1)
#3850000
0)
#3855000
b11101 6
1)
#3860000
0)
#3865000
b11110 6
1)
#3870000
0)
#3875000
10
b11111 6
1)
#3880000
1,
0)
#3885000
b1 H
1"
0#
b10100101 G
00
b0 6
1)
#3890000
b0 J
0,
0)
#3895000
b1 6
b1 ?
1)
#3896000
b1 J
#3900000
0)
#3905000
b10 6
1)
#3906000
b10 J
#3910000
0)
#3915000
b11 6
1)
#3916000
b11 J
#3920000
0)
#3925000
b100 6
1)
#3926000
b100 J
#3930000
0)
#3935000
b101 6
1)
#3936000
b101 J
#3940000
0)
#3945000
b110 6
1)
#3946000
b110 J
#3950000
0)
#3955000
b111 6
1)
#3956000
b111 J
#3960000
0)
#3965000
b1000 6
1)
#3966000
b1000 J
#3970000
0)
#3975000
b1001 6
1)
#3976000
b1001 J
#3980000
0)
#3985000
b1010 6
1)
#3986000
b1010 J
#3990000
0)
#3995000
b1011 6
1)
#3996000
b1011 J
#4000000
0)
#4005000
b1100 6
1)
#4006000
b1100 J
#4010000
0)
#4015000
b1101 6
1)
#4016000
b1101 J
#4020000
0)
#4025000
b1110 6
1)
#4026000
b1110 J
#4030000
0)
#4035000
b1111 6
1)
#4036000
b1111 J
#4040000
0)
#4045000
b10000 6
1)
#4046000
b10000 J
#4050000
0)
#4055000
b10001 6
1)
#4056000
b10001 J
#4060000
0)
#4065000
b10010 6
1)
#4066000
b10010 J
#4070000
0)
#4075000
b10011 6
1)
#4076000
b10011 J
#4080000
0)
#4085000
b10100 6
1)
#4086000
b10100 J
#4090000
0)
#4095000
b10101 6
1)
#4096000
b10101 J
#4100000
0)
#4105000
b10110 6
1)
#4106000
b10110 J
#4110000
0)
#4115000
b10111 6
1)
#4116000
b10111 J
#4120000
0)
#4125000
b11000 6
1)
#4126000
b11000 J
#4130000
0)
#4135000
b11001 6
1)
#4136000
b11001 J
#4140000
0)
#4145000
b11010 6
1)
#4146000
b11010 J
#4150000
0)
#4155000
b11011 6
1)
#4156000
b11011 J
#4160000
0)
#4165000
b11100 6
1)
#4166000
b11100 J
#4170000
0)
#4175000
b11101 6
1)
#4176000
b11101 J
#4180000
0)
#4185000
b11110 6
1)
#4186000
b11110 J
#4190000
0)
#4195000
10
b11111 6
1)
#4196000
b11111 J
#4200000
0)
#4205000
b10 ?
b10 H
1#
00
b0 6
1)
#4206000
b100000 J
#4210000
0)
#4215000
b1 6
1)
#4216000
b100001 J
#4220000
0)
#4225000
b10 6
1)
