uart/sim/uart_rx_tb.vcd
$date
	Tue May 19 04:23:29 2026
$end
$version
	Icarus Verilog
$end
$timescale
	1ps
$end
$scope module uart_rx_tb $end
$var wire 1 ! rx_done $end
$var wire 8 " rx_data [7:0] $end
$var reg 1 # baud_tick $end
$var reg 1 $ clk $end
$var reg 1 % rst $end
$var reg 1 & rx $end
$var integer 32 ' errors [31:0] $end
$var integer 32 ( i [31:0] $end
$scope module dut $end
$var wire 1 # baud_tick $end
$var wire 1 $ clk $end
$var wire 1 % rst $end
$var wire 1 & rx $end
$var parameter 3 ) DATA_BITS $end
$var parameter 3 * DONE $end
$var parameter 3 + IDLE $end
$var parameter 3 , START_BIT $end
$var parameter 3 - STOP_BIT $end
$var reg 3 . bit_index [2:0] $end
$var reg 8 / data_reg [7:0] $end
$var reg 8 0 rx_data [7:0] $end
$var reg 1 ! rx_done $end
$var reg 3 1 state [2:0] $end
$upscope $end
$scope task pulse_baud_tick $end
$upscope $end
$scope task send_serial_and_check $end
$var reg 8 2 expected_data [7:0] $end
$upscope $end
$upscope $end
$enddefinitions $end
$comment Show the parameter values. $end
$dumpall
b11 -
b1 ,
b0 +
b100 *
b10 )
$end
#0
$dumpvars
bx 2
b0 1
b0 0
b0 /
b0 .
bx (
b0 '
1&
1%
0$
0#
b0 "
0!
$end
#5000
1$
#10000
0$
#15000
1$
#20000
0$
#25000
1$
#30000
0%
0$
#35000
1$
#40000
0$
#45000
b10100101 2
1$
#50000
0$
#55000
1$
#60000
0$
#65000
1$
#70000
0&
0$
#75000
b1 1
1$
#80000
1#
0$
#85000
b10 1
1$
#90000
b0 (
0#
0$
#95000
1$
#100000
1&
0$
#105000
1$
#110000
1#
0$
#115000
b1 .
b1 /
1$
#120000
b1 (
0#
0$
#125000
1$
#130000
0&
0$
#135000
1$
#140000
1#
0$
#145000
b10 .
1$
#150000
b10 (
0#
0$
#155000
1$
#160000
1&
0$
#165000
1$
#170000
1#
0$
#175000
b11 .
b101 /
1$
#180000
b11 (
0#
0$
#185000
1$
#190000
0&
0$
#195000
1$
#200000
1#
0$
#205000
b100 .
1$
#210000
b100 (
0#
0$
#215000
1$
#220000
0$
#225000
1$
#230000
1#
0$
#235000
b101 .
1$
#240000
b101 (
0#
0$
#245000
1$
#250000
1&
0$
#255000
1$
#260000
1#
0$
#265000
b110 .
b100101 /
1$
#270000
b110 (
0#
0$
#275000
1$
#280000
0&
0$
#285000
1$
#290000
1#
0$
#295000
b111 .
1$
#300000
b111 (
0#
0$
#305000
1$
#310000
1&
0$
#315000
1$
#320000
1#
0$
#325000
b11 1
b0 .
b10100101 /
1$
#330000
b1000 (
0#
0$
#335000
1$
#340000
0$
#345000
1$
#350000
1#
0$
#355000
b100 1
b10100101 "
b10100101 0
1$
#360000
0#
0$
#365000
b0 1
1!
1$
#370000
0$
#375000
0!
1$
#380000
0$
#385000
1$
#390000
0$
#395000
1$
#400000
0$
#405000
b111100 2
1$
#410000
0$
#415000
1$
#420000
0$
#425000
1$
#430000
0&
0$
#435000
b1 1
1$
#440000
1#
0$
#445000
b10 1
1$
#450000
b0 (
0#
0$
#455000
1$
#460000
0$
#465000
1$
#470000
1#
0$
#475000
b1 .
b10100100 /
1$
#480000
b1 (
0#
0$
#485000
1$
#490000
0$
#495000
1$
#500000
1#
0$
#505000
b10 .
1$
#510000
b10 (
0#
0$
#515000
1$
#520000
1&
0$
#525000
1$
#530000
1#
0$
#535000
b11 .
1$
#540000
b11 (
0#
0$
#545000
1$
#550000
0$
#555000
1$
#560000
1#
0$
#565000
b100 .
b10101100 /
1$
#570000
b100 (
0#
0$
#575000
1$
#580000
0$
#585000
1$
#590000
1#
0$
#595000
b101 .
b10111100 /
1$
#600000
b101 (
0#
0$
#605000
1$
#610000
0$
#615000
1$
#620000
1#
0$
#625000
b110 .
1$
#630000
b110 (
0#
0$
#635000
1$
#640000
0&
0$
#645000
1$
#650000
1#
0$
#655000
b111 .
1$
#660000
b111 (
0#
0$
#665000
1$
#670000
0$
#675000
1$
#680000
1#
0$
#685000
b11 1
b0 .
b111100 /
1$
#690000
b1000 (
0#
0$
#695000
1$
#700000
1&
0$
#705000
1$
#710000
1#
0$
#715000
b100 1
b111100 "
b111100 0
1$
#720000
0#
0$
#725000
b0 1
1!
1$
#730000
0$
#735000
0!
1$
#740000
0$
#745000
1$
#750000
0$
#755000
1$
#760000
0$
#765000
b0 2
1$
#770000
0$
#775000
1$
#780000
0$
#785000
1$
#790000
0&
0$
#795000
b1 1
1$
#800000
1#
0$
#805000
b10 1
1$
#810000
b0 (
0#
0$
#815000
1$
#820000
0$
#825000
1$
#830000
1#
0$
#835000
b1 .
1$
#840000
b1 (
0#
0$
#845000
1$
#850000
0$
#855000
1$
#860000
1#
0$
#865000
b10 .
1$
#870000
b10 (
0#
0$
#875000
1$
#880000
0$
#885000
1$
#890000
1#
0$
#895000
b11 .
b111000 /
1$
#900000
b11 (
0#
0$
#905000
1$
#910000
0$
#915000
1$
#920000
1#
0$
#925000
b100 .
b110000 /
1$
#930000
b100 (
0#
0$
#935000
1$
#940000
0$
#945000
1$
#950000
1#
0$
#955000
b101 .
b100000 /
1$
#960000
b101 (
0#
0$
#965000
1$
#970000
0$
#975000
1$
#980000
1#
0$
#985000
b110 .
b0 /
1$
#990000
b110 (
0#
0$
#995000
1$
#1000000
0$
#1005000
1$
#1010000
1#
0$
#1015000
b111 .
1$
#1020000
b111 (
0#
0$
#1025000
1$
#1030000
0$
#1035000
1$
#1040000
1#
0$
#1045000
b11 1
b0 .
1$
#1050000
b1000 (
0#
0$
#1055000
1$
#1060000
1&
0$
#1065000
1$
#1070000
1#
0$
#1075000
b100 1
b0 "
b0 0
1$
#1080000
0#
0$
#1085000
b0 1
1!
1$
#1090000
0$
#1095000
0!
1$
#1100000
0$
#1105000
1$
#1110000
0$
#1115000
1$
#1120000
0$
#1125000
b11111111 2
1$
#1130000
0$
#1135000
1$
#1140000
0$
#1145000
1$
#1150000
0&
0$
#1155000
b1 1
1$
#1160000
1#
0$
#1165000
b10 1
1$
#1170000
b0 (
0#
0$
#1175000
1$
#1180000
1&
0$
#1185000
1$
#1190000
1#
0$
#1195000
b1 .
b1 /
1$
#1200000
b1 (
0#
0$
#1205000
1$
#1210000
0$
#1215000
1$
#1220000
1#
0$
#1225000
b10 .
b11 /
1$
#1230000
b10 (
0#
0$
#1235000
1$
#1240000
0$
#1245000
1$
#1250000
1#
0$
#1255000
b11 .
b111 /
1$
#1260000
b11 (
0#
0$
#1265000
1$
#1270000
0$
#1275000
1$
#1280000
1#
0$
#1285000
b100 .
b1111 /
1$
#1290000
b100 (
0#
0$
#1295000
1$
#1300000
0$
#1305000
1$
#1310000
1#
0$
#1315000
b101 .
b11111 /
1$
#1320000
b101 (
0#
0$
#1325000
1$
#1330000
0$
#1335000
1$
#1340000
1#
0$
#1345000
b110 .
b111111 /
1$
#1350000
b110 (
0#
0$
#1355000
1$
#1360000
0$
#1365000
1$
#1370000
1#
0$
#1375000
b111 .
b1111111 /
1$
#1380000
b111 (
0#
0$
#1385000
1$
#1390000
0$
#1395000
1$
#1400000
1#
0$
#1405000
b11 1
b0 .
b11111111 /
1$
#1410000
b1000 (
0#
0$
#1415000
1$
#1420000
0$
#1425000
1$
#1430000
1#
0$
#1435000
b100 1
b11111111 "
b11111111 0
1$
#1440000
0#
0$
#1445000
b0 1
1!
1$
#1450000
0$
#1455000
0!
1$
